Microeconometrics: Methods and Applications - 3 Introduction to R and Basic Tools Required for this book
…
Once loaded tidyverse package, you can use all the tools in the packages that are loaded with tidyverse. So let’s now try to make a join between two data frames (tibbles), first create the mean as previous examples and next join this mean to the mroz dataset by the column inlf

mroz %>% group_by(inlf) %>% summarise(MeanKidslt6 = mean(kidslt6)) %>%
  ungroup() %>% right_join(mroz, by = "inlf")

# A tibble: 753 × 23
    inlf MeanKidslt6 hours kidslt6 kidsge6   age  educ  wage repwage hushrs
   <int>       <dbl> <int>   <int>   <int> <int> <int> <dbl>   <dbl>  <int>
 1     0       0.366     0       0       1    49    12    NA       0   2550
 2     0       0.366     0       2       0    30    16    NA       0   1928
 3     0       0.366     0       1       0    30    12    NA       0   1100
 4     0       0.366     0       0       4    41    12    NA       0   3193
 5     0       0.366     0       0       1    45    12    NA       0   2250
 6     0       0.366     0       0       5    43    12    NA       0   2012
 7     0       0.366     0       0       1    42    13    NA       0   3856
 8     0       0.366     0       0       0    60    12    NA       0   1645
 9     0       0.366     0       0       0    57    12    NA       0   1554
10     0       0.366     0       0       2    38    10    NA       0   2352
# ℹ 743 more rows
# ℹ 13 more variables: husage <int>, huseduc <int>, huswage <dbl>,
#   faminc <dbl>, mtr <dbl>, motheduc <int>, fatheduc <int>, unem <dbl>,
#   city <int>, exper <int>, nwifeinc <dbl>, lwage <dbl>, expersq <int>
…
